{
  "$schema":  "https://raw.githubusercontent.com/jetify-com/devbox/0.11.1/.schema/devbox.schema.json",
  "packages": [
    "direnv@latest",
    "gitleaks@latest",
    "go-task@latest",
    "pre-commit@latest"
  ],
  "shell": {
    "init_hook": ["echo 'Welcome to devbox!' > /dev/null"],
    "scripts": {
      "test": ["echo \"Error: no test specified\" && exit 1"]
    }
  }
}
